Pessoa,FilmeAt,FilmeDir
sofia\_coppola,cq,lick\_the\_star
sofia\_coppola,cq,marie\_antoinette
sofia\_coppola,cq,lost\_in\_translation
sofia\_coppola,cq,the\_virgin\_suicides
roman\_coppola,torrance\_rises,cq
ivan\_reitman,ghostbusters,ghostbusters
sofia\_coppola,anna,lick\_the\_star
sofia\_coppola,anna,marie\_antoinette
sofia\_coppola,anna,lost\_in\_translation
sofia\_coppola,anna,the\_virgin\_suicides
sofia\_coppola,hearts\_of\_darkness\_a\_filmmaker\_s\_apocalypse,lick\_the\_star
sofia\_coppola,hearts\_of\_darkness\_a\_filmmaker\_s\_apocalypse,marie\_antoinette
sofia\_coppola,hearts\_of\_darkness\_a\_filmmaker\_s\_apocalypse,lost\_in\_translation
sofia\_coppola,hearts\_of\_darkness\_a\_filmmaker\_s\_apocalypse,the\_virgin\_suicides
sofia\_coppola,star\_wars\_episode\_i\_\_the\_phantom\_menace,lick\_the\_star
sofia\_coppola,star\_wars\_episode\_i\_\_the\_phantom\_menace,marie\_antoinette
sofia\_coppola,star\_wars\_episode\_i\_\_the\_phantom\_menace,lost\_in\_translation
sofia\_coppola,star\_wars\_episode\_i\_\_the\_phantom\_menace,the\_virgin\_suicides
sofia\_coppola,torrance\_rises,lick\_the\_star
sofia\_coppola,torrance\_rises,marie\_antoinette
sofia\_coppola,torrance\_rises,lost\_in\_translation
sofia\_coppola,torrance\_rises,the\_virgin\_suicides
george\_lucas,hearts\_of\_darkness\_a\_filmmaker\_s\_apocalypse,star\_wars\_episode\_i\_\_the\_phantom\_menace
sofia\_coppola,the\_godfather,lick\_the\_star
sofia\_coppola,the\_godfather,marie\_antoinette
sofia\_coppola,the\_godfather,lost\_in\_translation
sofia\_coppola,the\_godfather,the\_virgin\_suicides
eric\_schaeffer,fall,fall
eric\_schaeffer,fall,if\_lucy\_fell
sofia\_coppola,the\_outsiders,lick\_the\_star
sofia\_coppola,the\_outsiders,marie\_antoinette
sofia\_coppola,the\_outsiders,lost\_in\_translation
sofia\_coppola,the\_outsiders,the\_virgin\_suicides
sam\_raimi,spies\_like\_us,crimewave
robert\_redford,the\_horse\_whisperer,the\_horse\_whisperer
sam\_raimi,the\_hudsucker\_proxy,crimewave
denzel\_washington,the\_great\_debaters,the\_great\_debaters
sofia\_coppola,the\_cotton\_club,lick\_the\_star
sofia\_coppola,the\_cotton\_club,marie\_antoinette
sofia\_coppola,the\_cotton\_club,lost\_in\_translation
sofia\_coppola,the\_cotton\_club,the\_virgin\_suicides
ethan\_coen,down\_from\_the\_mountain,blood\_simple
ethan\_coen,down\_from\_the\_mountain,the\_hudsucker\_proxy
ethan\_coen,down\_from\_the\_mountain,raising\_arizona
ethan\_coen,down\_from\_the\_mountain,the\_ladykillers
ethan\_coen,down\_from\_the\_mountain,the\_man\_who\_wasn\_t\_there
ethan\_coen,down\_from\_the\_mountain,barton\_fink
ethan\_coen,down\_from\_the\_mountain,intolerable\_cruelty
ethan\_coen,down\_from\_the\_mountain,o\_brother\_where\_art\_thou
ethan\_coen,down\_from\_the\_mountain,fargo
ethan\_coen,down\_from\_the\_mountain,miller\_s\_crossing
ethan\_coen,down\_from\_the\_mountain,paris\_je\_t\_aime
joel\_coen,spies\_like\_us,miller\_s\_crossing
joel\_coen,spies\_like\_us,paris\_je\_t\_aime
joel\_coen,spies\_like\_us,the\_man\_who\_wasn\_t\_there
joel\_coen,spies\_like\_us,o\_brother\_where\_art\_thou
joel\_coen,spies\_like\_us,intolerable\_cruelty
joel\_coen,spies\_like\_us,the\_ladykillers
joel\_coen,spies\_like\_us,blood\_simple
joel\_coen,spies\_like\_us,the\_big\_lebowski
joel\_coen,spies\_like\_us,fargo
joel\_coen,spies\_like\_us,barton\_fink
joel\_coen,spies\_like\_us,raising\_arizona
joel\_coen,spies\_like\_us,the\_hudsucker\_proxy
joel\_coen,spies\_like\_us,no\_country\_for\_old\_men
sofia\_coppola,the\_godfather\_part\_ii,lick\_the\_star
sofia\_coppola,the\_godfather\_part\_ii,marie\_antoinette
sofia\_coppola,the\_godfather\_part\_ii,lost\_in\_translation
sofia\_coppola,the\_godfather\_part\_ii,the\_virgin\_suicides
joel\_coen,crimewave,miller\_s\_crossing
joel\_coen,crimewave,paris\_je\_t\_aime
joel\_coen,crimewave,the\_man\_who\_wasn\_t\_there
joel\_coen,crimewave,o\_brother\_where\_art\_thou
joel\_coen,crimewave,intolerable\_cruelty
joel\_coen,crimewave,the\_ladykillers
joel\_coen,crimewave,blood\_simple
joel\_coen,crimewave,the\_big\_lebowski
joel\_coen,crimewave,fargo
joel\_coen,crimewave,barton\_fink
joel\_coen,crimewave,raising\_arizona
joel\_coen,crimewave,the\_hudsucker\_proxy
joel\_coen,crimewave,no\_country\_for\_old\_men
harold\_ramis,ghostbusters,groundhog\_day
roman\_coppola,hearts\_of\_darkness\_a\_filmmaker\_s\_apocalypse,cq
eleanor\_coppola,hearts\_of\_darkness\_a\_filmmaker\_s\_apocalypse,hearts\_of\_darkness\_a\_filmmaker\_s\_apocalypse
sofia\_coppola,the\_godfather\_part\_iii,lick\_the\_star
sofia\_coppola,the\_godfather\_part\_iii,marie\_antoinette
sofia\_coppola,the\_godfather\_part\_iii,lost\_in\_translation
sofia\_coppola,the\_godfather\_part\_iii,the\_virgin\_suicides
sofia\_coppola,peggy\_sue\_got\_married,lick\_the\_star
sofia\_coppola,peggy\_sue\_got\_married,marie\_antoinette
sofia\_coppola,peggy\_sue\_got\_married,lost\_in\_translation
sofia\_coppola,peggy\_sue\_got\_married,the\_virgin\_suicides
va\_g\_rdos,an\_american\_rhapsody,an\_american\_rhapsody
roman\_coppola,the\_godfather\_part\_ii,cq
sam\_raimi,miller\_s\_crossing,crimewave
sofia\_coppola,frankenweenie,lick\_the\_star
sofia\_coppola,frankenweenie,marie\_antoinette
sofia\_coppola,frankenweenie,lost\_in\_translation
sofia\_coppola,frankenweenie,the\_virgin\_suicides
spike\_jonze,torrance\_rises,torrance\_rises
spike\_jonze,torrance\_rises,her
harold\_ramis,groundhog\_day,groundhog\_day
woody\_allen,scoop,match\_point
woody\_allen,scoop,scoop
stephen\_hillenburg,the\_spongebob\_squarepants\_movie,the\_spongebob\_squarepants\_movie
roman\_coppola,star\_wars\_episode\_i\_\_the\_phantom\_menace,cq
sofia\_coppola,rumble\_fish,lick\_the\_star
sofia\_coppola,rumble\_fish,marie\_antoinette
sofia\_coppola,rumble\_fish,lost\_in\_translation
sofia\_coppola,rumble\_fish,the\_virgin\_suicides
sofia\_coppola,inside\_monkey\_zetterland,lick\_the\_star
sofia\_coppola,inside\_monkey\_zetterland,marie\_antoinette
sofia\_coppola,inside\_monkey\_zetterland,lost\_in\_translation
sofia\_coppola,inside\_monkey\_zetterland,the\_virgin\_suicides
g\_rard\_depardieu,cq,paris\_je\_t\_aime
eric\_schaeffer,if\_lucy\_fell,fall
eric\_schaeffer,if\_lucy\_fell,if\_lucy\_fell
francis\_ford\_coppola,hearts\_of\_darkness\_a\_filmmaker\_s\_apocalypse,peggy\_sue\_got\_married
francis\_ford\_coppola,hearts\_of\_darkness\_a\_filmmaker\_s\_apocalypse,the\_cotton\_club
francis\_ford\_coppola,hearts\_of\_darkness\_a\_filmmaker\_s\_apocalypse,the\_godfather\_part\_ii
francis\_ford\_coppola,hearts\_of\_darkness\_a\_filmmaker\_s\_apocalypse,the\_outsiders
francis\_ford\_coppola,hearts\_of\_darkness\_a\_filmmaker\_s\_apocalypse,rumble\_fish
francis\_ford\_coppola,hearts\_of\_darkness\_a\_filmmaker\_s\_apocalypse,the\_godfather
francis\_ford\_coppola,hearts\_of\_darkness\_a\_filmmaker\_s\_apocalypse,the\_godfather\_part\_iii
joel\_coen,down\_from\_the\_mountain,miller\_s\_crossing
joel\_coen,down\_from\_the\_mountain,paris\_je\_t\_aime
joel\_coen,down\_from\_the\_mountain,the\_man\_who\_wasn\_t\_there
joel\_coen,down\_from\_the\_mountain,o\_brother\_where\_art\_thou
joel\_coen,down\_from\_the\_mountain,intolerable\_cruelty
joel\_coen,down\_from\_the\_mountain,the\_ladykillers
joel\_coen,down\_from\_the\_mountain,blood\_simple
joel\_coen,down\_from\_the\_mountain,the\_big\_lebowski
joel\_coen,down\_from\_the\_mountain,fargo
joel\_coen,down\_from\_the\_mountain,barton\_fink
joel\_coen,down\_from\_the\_mountain,raising\_arizona
joel\_coen,down\_from\_the\_mountain,the\_hudsucker\_proxy
joel\_coen,down\_from\_the\_mountain,no\_country\_for\_old\_men
